EESchema Schematic File Version 4
EELAYER 26 0
EELAYER END
$Descr A4 11693 8268
encoding utf-8
Sheet 1 1
Title ""
Date ""
Rev ""
Comp ""
Comment1 ""
Comment2 ""
Comment3 ""
Comment4 ""
$EndDescr
Text GLabel 850  1400 0    50   Output ~ 0
GPS_RX
Text GLabel 850  1500 0    50   Input ~ 0
GPS_TX
Wire Wire Line
	850  1400 1000 1400
Wire Wire Line
	850  1500 1000 1500
$Comp
L Connector:Conn_01x05_Female J2
U 1 1 5C0127D0
P 750 5750
F 0 "J2" H 644 6135 50  0000 C CNN
F 1 "GPS_UART" H 644 6044 50  0000 C CNN
F 2 "Connector_PinSocket_2.54mm:PinSocket_1x04_P2.54mm_Vertical_SMD_Pin1Left" H 750 5750 50  0001 C CNN
F 3 "~" H 750 5750 50  0001 C CNN
	1    750  5750
	-1   0    0    -1  
$EndComp
$Comp
L power:VCC #PWR0101
U 1 1 5C012AAB
P -32400 123550
F 0 "#PWR0101" H -32400 123400 50  0001 C CNN
F 1 "VCC" H -32383 123723 50  0000 C CNN
F 2 "" H -32400 123550 50  0001 C CNN
F 3 "" H -32400 123550 50  0001 C CNN
	1    -32400 123550
	1    0    0    -1  
$EndComp
$Comp
L power:+5V #PWR0102
U 1 1 5C012EB8
P -47100 -285550
F 0 "#PWR0102" H -47100 -285700 50  0001 C CNN
F 1 "+5V" H -47085 -285377 50  0000 C CNN
F 2 "" H -47100 -285550 50  0001 C CNN
F 3 "" H -47100 -285550 50  0001 C CNN
	1    -47100 -285550
	1    0    0    -1  
$EndComp
$Comp
L power:+5V #PWR0103
U 1 1 5C012FA8
P 1450 5350
F 0 "#PWR0103" H 1450 5200 50  0001 C CNN
F 1 "+5V" H 1465 5523 50  0000 C CNN
F 2 "" H 1450 5350 50  0001 C CNN
F 3 "" H 1450 5350 50  0001 C CNN
	1    1450 5350
	1    0    0    -1  
$EndComp
Wire Wire Line
	950  5550 1450 5550
Wire Wire Line
	1450 5550 1450 5350
$Comp
L power:GND #PWR0104
U 1 1 5C01303F
P 1450 6050
F 0 "#PWR0104" H 1450 5800 50  0001 C CNN
F 1 "GND" H 1455 5877 50  0000 C CNN
F 2 "" H 1450 6050 50  0001 C CNN
F 3 "" H 1450 6050 50  0001 C CNN
	1    1450 6050
	1    0    0    -1  
$EndComp
Text GLabel 1000 5750 2    50   Input ~ 0
GPS_TX
Text GLabel 1000 5850 2    50   Input ~ 0
GPS_RX
Wire Wire Line
	950  5750 1000 5750
Wire Wire Line
	950  5850 1000 5850
Text GLabel 2750 2700 2    50   Output ~ 0
LCD_MOSI
Text GLabel 2750 2600 2    50   Input ~ 0
LCD_MISO
Text GLabel 2750 2800 2    50   Output ~ 0
LCD_SCK
Text GLabel 950  1900 0    50   Output ~ 0
SND_OUT
Wire Wire Line
	950  1900 1000 1900
Text GLabel 850  2300 0    50   Output ~ 0
LED_R1
Text GLabel 850  2500 0    50   Output ~ 0
LED_R2
Text GLabel 850  2600 0    50   Output ~ 0
LED_G1
Text GLabel 850  2700 0    50   Output ~ 0
LED_G2
Text GLabel 850  2900 0    50   Output ~ 0
LED_B1
Text GLabel 850  3000 0    50   Output ~ 0
LED_B2
Wire Wire Line
	850  2500 1000 2500
Wire Wire Line
	850  2600 1000 2600
Wire Wire Line
	850  2700 1000 2700
Wire Wire Line
	850  2800 1000 2800
Wire Wire Line
	850  2900 1000 2900
Wire Wire Line
	850  3000 1000 3000
Text GLabel 2750 3000 2    50   Output ~ 0
LED_A
Text GLabel 2750 3100 2    50   Output ~ 0
LED_B
Text GLabel 2750 1700 2    50   Output ~ 0
LED_C
Text GLabel 2750 1800 2    50   Output ~ 0
LED_STB
Text GLabel 2750 2000 2    50   Output ~ 0
LED_CLK
Text GLabel 2750 2100 2    50   Output ~ 0
LED_OE
Wire Wire Line
	2600 1700 2750 1700
Wire Wire Line
	2600 1800 2750 1800
Wire Wire Line
	2600 2000 2750 2000
Wire Wire Line
	2600 2100 2750 2100
Text GLabel 900  1700 0    50   Input ~ 0
IR_BREAK
Wire Wire Line
	900  1700 1000 1700
$Comp
L power:+5V #PWR0105
U 1 1 5C01A221
P 1500 800
F 0 "#PWR0105" H 1500 650 50  0001 C CNN
F 1 "+5V" H 1515 973 50  0000 C CNN
F 2 "" H 1500 800 50  0001 C CNN
F 3 "" H 1500 800 50  0001 C CNN
	1    1500 800 
	1    0    0    -1  
$EndComp
$Comp
L power:+5V #PWR0106
U 1 1 5C01A249
P 1700 800
F 0 "#PWR0106" H 1700 650 50  0001 C CNN
F 1 "+5V" H 1715 973 50  0000 C CNN
F 2 "" H 1700 800 50  0001 C CNN
F 3 "" H 1700 800 50  0001 C CNN
	1    1700 800 
	1    0    0    -1  
$EndComp
Wire Wire Line
	1700 1000 1700 800 
Wire Wire Line
	2750 2700 2600 2700
Wire Wire Line
	2600 2800 2750 2800
Wire Wire Line
	2750 2600 2600 2600
Text GLabel 2750 2500 2    50   Output ~ 0
LCD_T_CS
Text GLabel 2750 2400 2    50   Output ~ 0
LCD_L_CS
Wire Wire Line
	2750 2400 2600 2400
Wire Wire Line
	2600 2500 2750 2500
Text Notes 1200 4150 0    50   ~ 0
Raspberry Pi Zero W Header
Text Notes 850  6550 0    50   ~ 0
GPS Module
$Comp
L Connector_Generic:Conn_02x04_Counter_Clockwise J3
U 1 1 5C02172A
P 4750 1450
F 0 "J3" H 4800 1767 50  0000 C CNN
F 1 "LCD_HEADER" H 4800 1676 50  0000 C CNN
F 2 "Connector_PinSocket_2.54mm:PinSocket_2x04_P2.54mm_Vertical" H 4750 1450 50  0001 C CNN
F 3 "~" H 4750 1450 50  0001 C CNN
	1    4750 1450
	1    0    0    -1  
$EndComp
$Comp
L power:GND #PWR0107
U 1 1 5C022679
P 5200 1750
F 0 "#PWR0107" H 5200 1500 50  0001 C CNN
F 1 "GND" H 5205 1577 50  0000 C CNN
F 2 "" H 5200 1750 50  0001 C CNN
F 3 "" H 5200 1750 50  0001 C CNN
	1    5200 1750
	1    0    0    -1  
$EndComp
Wire Wire Line
	5200 1750 5200 1650
Text GLabel 4400 1650 0    50   Output ~ 0
LCD_MOSI
Text GLabel 4400 1550 0    50   Input ~ 0
LCD_MISO
Text GLabel 4400 1450 0    50   Output ~ 0
LCD_SCK
Text GLabel 5200 1450 2    50   Output ~ 0
LCD_T_CS
Text GLabel 5200 1350 2    50   Output ~ 0
LCD_L_CS
Wire Wire Line
	5050 1350 5200 1350
Wire Wire Line
	5050 1450 5200 1450
Wire Wire Line
	4400 1450 4550 1450
Wire Wire Line
	4400 1550 4550 1550
Wire Wire Line
	4400 1650 4550 1650
Wire Wire Line
	850  2300 1000 2300
Text GLabel 850  2800 0    50   Input ~ 0
LCD_IRQ
Text GLabel 5200 1550 2    50   Input ~ 0
LCD_IRQ
Wire Wire Line
	5200 1550 5050 1550
Wire Wire Line
	4550 1350 4400 1350
Wire Wire Line
	4400 1350 4400 1200
$Comp
L power:GND #PWR0108
U 1 1 5C03275D
P 4400 1200
F 0 "#PWR0108" H 4400 950 50  0001 C CNN
F 1 "GND" H 4405 1027 50  0000 C CNN
F 2 "" H 4400 1200 50  0001 C CNN
F 3 "" H 4400 1200 50  0001 C CNN
	1    4400 1200
	1    0    0    1   
$EndComp
Text Notes 4600 2050 0    50   ~ 0
LCD Module
$Comp
L Connector_Generic:Conn_02x08_Top_Bottom J4
U 1 1 5C032D6E
P 4700 2750
F 0 "J4" H 4750 3267 50  0000 C CNN
F 1 "LED_HEADER" H 4750 3176 50  0000 C CNN
F 2 "Connector_PinSocket_2.54mm:PinSocket_2x08_P2.54mm_Vertical" H 4700 2750 50  0001 C CNN
F 3 "~" H 4700 2750 50  0001 C CNN
	1    4700 2750
	1    0    0    -1  
$EndComp
Text GLabel 4300 2450 0    50   Output ~ 0
LED_R1
Text GLabel 4300 2550 0    50   Output ~ 0
LED_B1
Text GLabel 4300 2650 0    50   Output ~ 0
LED_R2
Text GLabel 4300 2750 0    50   Output ~ 0
LED_B2
Text GLabel 4300 2850 0    50   Output ~ 0
LED_A
Text GLabel 4300 2950 0    50   Output ~ 0
LED_C
Text GLabel 4300 3050 0    50   Output ~ 0
LED_CLK
Text GLabel 4300 3150 0    50   Output ~ 0
LED_OE
Text GLabel 5200 2450 2    50   Output ~ 0
LED_G1
Text GLabel 5200 2650 2    50   Output ~ 0
LED_G2
Text GLabel 5200 2850 2    50   Output ~ 0
LED_B
Text GLabel 5200 3050 2    50   Output ~ 0
LED_STB
$Comp
L power:GND #PWR0109
U 1 1 5C034345
P 5700 3150
F 0 "#PWR0109" H 5700 2900 50  0001 C CNN
F 1 "GND" H 5705 2977 50  0000 C CNN
F 2 "" H 5700 3150 50  0001 C CNN
F 3 "" H 5700 3150 50  0001 C CNN
	1    5700 3150
	1    0    0    -1  
$EndComp
Wire Wire Line
	5000 3150 5700 3150
Wire Wire Line
	5000 2550 5700 2550
Wire Wire Line
	4500 2450 4300 2450
Wire Wire Line
	4300 2550 4500 2550
Wire Wire Line
	4300 2650 4500 2650
Wire Wire Line
	4300 2750 4500 2750
Wire Wire Line
	4300 2850 4500 2850
Wire Wire Line
	4300 2950 4500 2950
Wire Wire Line
	4300 3050 4500 3050
Wire Wire Line
	4300 3150 4500 3150
Wire Wire Line
	5000 2450 5200 2450
Wire Wire Line
	5000 2650 5200 2650
Wire Wire Line
	5000 2850 5200 2850
Wire Wire Line
	5000 3050 5200 3050
Text Notes 5100 3500 2    50   ~ 0
LED Display Module
Text GLabel 3800 3800 0    50   Output ~ 0
SND_OUT
$Comp
L Device:R R1
U 1 1 5C04D5E6
P 3950 3800
F 0 "R1" V 3743 3800 50  0000 C CNN
F 1 "270R" V 3834 3800 50  0000 C CNN
F 2 "Resistor_THT:R_Axial_DIN0204_L3.6mm_D1.6mm_P5.08mm_Horizontal" V 3880 3800 50  0001 C CNN
F 3 "~" H 3950 3800 50  0001 C CNN
	1    3950 3800
	0    1    1    0   
$EndComp
$Comp
L Device:C C1
U 1 1 5C04D9A9
P 4200 3950
F 0 "C1" H 4315 3996 50  0000 L CNN
F 1 "33n" H 4315 3905 50  0000 L CNN
F 2 "Capacitor_THT:C_Axial_L3.8mm_D2.6mm_P7.50mm_Horizontal" H 4238 3800 50  0001 C CNN
F 3 "~" H 4200 3950 50  0001 C CNN
	1    4200 3950
	1    0    0    -1  
$EndComp
$Comp
L Device:R R2
U 1 1 5C04DB6D
P 4500 3950
F 0 "R2" H 4570 3996 50  0000 L CNN
F 1 "150R" H 4570 3905 50  0000 L CNN
F 2 "Resistor_THT:R_Axial_DIN0204_L3.6mm_D1.6mm_P5.08mm_Horizontal" V 4430 3950 50  0001 C CNN
F 3 "~" H 4500 3950 50  0001 C CNN
	1    4500 3950
	1    0    0    -1  
$EndComp
Wire Wire Line
	4100 3800 4200 3800
Connection ~ 4200 3800
Wire Wire Line
	4200 4100 4350 4100
$Comp
L power:GND #PWR0110
U 1 1 5C052A02
P 4350 4200
F 0 "#PWR0110" H 4350 3950 50  0001 C CNN
F 1 "GND" H 4355 4027 50  0000 C CNN
F 2 "" H 4350 4200 50  0001 C CNN
F 3 "" H 4350 4200 50  0001 C CNN
	1    4350 4200
	1    0    0    -1  
$EndComp
Wire Wire Line
	4350 4200 4350 4100
Connection ~ 4350 4100
Wire Wire Line
	4350 4100 4500 4100
$Comp
L Device:C C2
U 1 1 5C05473B
P 4950 3800
F 0 "C2" V 4698 3800 50  0000 C CNN
F 1 "10u" V 4789 3800 50  0000 C CNN
F 2 "Capacitor_THT:C_Axial_L3.8mm_D2.6mm_P7.50mm_Horizontal" H 4988 3650 50  0001 C CNN
F 3 "~" H 4950 3800 50  0001 C CNN
	1    4950 3800
	0    1    1    0   
$EndComp
Wire Wire Line
	4800 3800 4500 3800
Connection ~ 4500 3800
Wire Wire Line
	4200 3800 4500 3800
$Comp
L Diode:BAV99 D1
U 1 1 5C05A695
P 5250 4150
F 0 "D1" V 5204 4228 50  0000 L CNN
F 1 "BAV99" V 5295 4228 50  0000 L CNN
F 2 "Package_TO_SOT_SMD:SOT-23" H 5250 4000 50  0001 C CNN
F 3 "www.nxp.com/documents/data_sheet/BAV99_SER.pdf" H 5250 4250 50  0001 C CNN
	1    5250 4150
	0    1    1    0   
$EndComp
$Comp
L Diode:BAV99 D3
U 1 1 5C05A720
P 5650 4150
F 0 "D3" V 5604 4228 50  0000 L CNN
F 1 "BAV99" V 5695 4228 50  0000 L CNN
F 2 "Package_TO_SOT_SMD:SOT-23" H 5650 4000 50  0001 C CNN
F 3 "www.nxp.com/documents/data_sheet/BAV99_SER.pdf" H 5650 4250 50  0001 C CNN
	1    5650 4150
	0    1    1    0   
$EndComp
$Comp
L Diode:BAV99 D2
U 1 1 5C05A76E
P 5250 4550
F 0 "D2" V 5204 4628 50  0000 L CNN
F 1 "BAV99" V 5295 4628 50  0000 L CNN
F 2 "Package_TO_SOT_SMD:SOT-23" H 5250 4400 50  0001 C CNN
F 3 "www.nxp.com/documents/data_sheet/BAV99_SER.pdf" H 5250 4650 50  0001 C CNN
	1    5250 4550
	0    1    1    0   
$EndComp
$Comp
L Diode:BAV99 D4
U 1 1 5C05A7BD
P 5650 4550
F 0 "D4" V 5604 4628 50  0000 L CNN
F 1 "BAV99" V 5695 4628 50  0000 L CNN
F 2 "Package_TO_SOT_SMD:SOT-23" H 5650 4400 50  0001 C CNN
F 3 "www.nxp.com/documents/data_sheet/BAV99_SER.pdf" H 5650 4650 50  0001 C CNN
	1    5650 4550
	0    1    1    0   
$EndComp
Wire Wire Line
	5250 4700 5550 4700
Wire Wire Line
	5650 4400 5650 4350
Wire Wire Line
	5650 4000 5250 4000
Wire Wire Line
	5250 4300 5250 4400
Wire Wire Line
	5650 4350 6000 4350
Wire Wire Line
	6000 4350 6000 3800
Wire Wire Line
	6000 3800 5100 3800
Connection ~ 5650 4350
Wire Wire Line
	5650 4350 5650 4300
$Comp
L power:+3.3V #PWR0111
U 1 1 5C065F0B
P 5250 3900
F 0 "#PWR0111" H 5250 3750 50  0001 C CNN
F 1 "+3.3V" H 5265 4073 50  0000 C CNN
F 2 "" H 5250 3900 50  0001 C CNN
F 3 "" H 5250 3900 50  0001 C CNN
	1    5250 3900
	1    0    0    -1  
$EndComp
Wire Wire Line
	5250 3900 5250 4000
Connection ~ 5250 4000
$Comp
L power:GND #PWR0112
U 1 1 5C068090
P 5550 4700
F 0 "#PWR0112" H 5550 4450 50  0001 C CNN
F 1 "GND" H 5555 4527 50  0000 C CNN
F 2 "" H 5550 4700 50  0001 C CNN
F 3 "" H 5550 4700 50  0001 C CNN
	1    5550 4700
	1    0    0    -1  
$EndComp
Connection ~ 5550 4700
Wire Wire Line
	5550 4700 5650 4700
Text Notes 5200 4800 2    50   ~ 0
Sound Module
$Comp
L Regulator_Switching:LM2596S-5 U1
U 1 1 5C068CEF
P 2700 5450
F 0 "U1" H 2700 5817 50  0000 C CNN
F 1 "LM2596S-5" H 2700 5726 50  0000 C CNN
F 2 "Package_TO_SOT_SMD:TO-263-5_TabPin3" H 2750 5200 50  0001 L CIN
F 3 "http://www.ti.com/lit/ds/symlink/lm2596.pdf" H 2700 5450 50  0001 C CNN
	1    2700 5450
	1    0    0    -1  
$EndComp
$Comp
L power:+12V #PWR0113
U 1 1 5C06BB8F
P 1800 5350
F 0 "#PWR0113" H 1800 5200 50  0001 C CNN
F 1 "+12V" H 1815 5523 50  0000 C CNN
F 2 "" H 1800 5350 50  0001 C CNN
F 3 "" H 1800 5350 50  0001 C CNN
	1    1800 5350
	1    0    0    -1  
$EndComp
$Comp
L power:GND #PWR0114
U 1 1 5C06E3F3
P 1800 6050
F 0 "#PWR0114" H 1800 5800 50  0001 C CNN
F 1 "GND" H 1805 5877 50  0000 C CNN
F 2 "" H 1800 6050 50  0001 C CNN
F 3 "" H 1800 6050 50  0001 C CNN
	1    1800 6050
	1    0    0    -1  
$EndComp
Wire Wire Line
	2700 5750 2700 5950
Wire Wire Line
	2700 5950 2200 5950
Wire Wire Line
	1800 5950 1800 6050
Wire Wire Line
	2200 5550 2200 5950
Connection ~ 2200 5950
Wire Wire Line
	2200 5950 1800 5950
$Comp
L Device:C_Small C3
U 1 1 5C07528A
P 1800 5650
F 0 "C3" H 1892 5696 50  0000 L CNN
F 1 "680uF" H 1892 5605 50  0000 L CNN
F 2 "Capacitor_THT:C_Axial_L3.8mm_D2.6mm_P7.50mm_Horizontal" H 1800 5650 50  0001 C CNN
F 3 "~" H 1800 5650 50  0001 C CNN
	1    1800 5650
	1    0    0    -1  
$EndComp
Wire Wire Line
	1800 5750 1800 5950
Connection ~ 1800 5950
Wire Wire Line
	1800 5550 1800 5350
Wire Wire Line
	1800 5350 2200 5350
Connection ~ 1800 5350
$Comp
L Diode:1N5820 D5
U 1 1 5C07EEAD
P 3350 5700
F 0 "D5" V 3304 5779 50  0000 L CNN
F 1 "1N5820" V 3395 5779 50  0000 L CNN
F 2 "Diode_THT:D_DO-201AD_P15.24mm_Horizontal" H 3350 5525 50  0001 C CNN
F 3 "http://www.vishay.com/docs/88526/1n5820.pdf" H 3350 5700 50  0001 C CNN
	1    3350 5700
	0    1    1    0   
$EndComp
$Comp
L power:GND #PWR0115
U 1 1 5C08459E
P 3350 6050
F 0 "#PWR0115" H 3350 5800 50  0001 C CNN
F 1 "GND" H 3355 5877 50  0000 C CNN
F 2 "" H 3350 6050 50  0001 C CNN
F 3 "" H 3350 6050 50  0001 C CNN
	1    3350 6050
	1    0    0    -1  
$EndComp
Wire Wire Line
	3350 6050 3350 5850
Wire Wire Line
	3350 5550 3200 5550
$Comp
L pspice:INDUCTOR L1
U 1 1 5C089E31
P 3800 5550
F 0 "L1" H 3800 5500 50  0000 C CNN
F 1 "33uH" H 3800 5400 50  0000 C CNN
F 2 "Connector_PinSocket_2.54mm:PinSocket_1x02_P2.54mm_Vertical" H 3800 5550 50  0001 C CNN
F 3 "~" H 3800 5550 50  0001 C CNN
	1    3800 5550
	1    0    0    -1  
$EndComp
$Comp
L Device:C_Small C4
U 1 1 5C08A6FE
P 4200 5750
F 0 "C4" H 4292 5796 50  0000 L CNN
F 1 "220uF" H 4292 5705 50  0000 L CNN
F 2 "Capacitor_THT:C_Axial_L3.8mm_D2.6mm_P7.50mm_Horizontal" H 4200 5750 50  0001 C CNN
F 3 "~" H 4200 5750 50  0001 C CNN
	1    4200 5750
	1    0    0    -1  
$EndComp
Wire Wire Line
	4050 5550 4200 5550
Wire Wire Line
	4200 5550 4200 5650
$Comp
L power:GND #PWR0116
U 1 1 5C08D78D
P 4200 6050
F 0 "#PWR0116" H 4200 5800 50  0001 C CNN
F 1 "GND" H 4205 5877 50  0000 C CNN
F 2 "" H 4200 6050 50  0001 C CNN
F 3 "" H 4200 6050 50  0001 C CNN
	1    4200 6050
	1    0    0    -1  
$EndComp
Wire Wire Line
	4200 6050 4200 5850
Wire Wire Line
	3550 5550 3350 5550
Connection ~ 3350 5550
Wire Wire Line
	4200 5550 4200 5350
Connection ~ 4200 5550
Text Notes 3500 6550 2    50   ~ 0
Power Supply Module
$Comp
L Device:Speaker LS1
U 1 1 5C09E472
P 6600 3800
F 0 "LS1" H 6770 3796 50  0000 L CNN
F 1 "Speaker" H 6770 3705 50  0000 L CNN
F 2 "Connector_PinSocket_2.54mm:PinSocket_1x02_P2.54mm_Vertical" H 6600 3600 50  0001 C CNN
F 3 "~" H 6590 3750 50  0001 C CNN
	1    6600 3800
	1    0    0    -1  
$EndComp
Wire Wire Line
	6400 3800 6000 3800
Connection ~ 6000 3800
$Comp
L power:GND #PWR0118
U 1 1 5C0A1804
P 6250 4100
F 0 "#PWR0118" H 6250 3850 50  0001 C CNN
F 1 "GND" H 6255 3927 50  0000 C CNN
F 2 "" H 6250 4100 50  0001 C CNN
F 3 "" H 6250 4100 50  0001 C CNN
	1    6250 4100
	1    0    0    -1  
$EndComp
Wire Wire Line
	6250 4100 6250 3900
Wire Wire Line
	6250 3900 6400 3900
$Comp
L power:GND #PWR0119
U 1 1 5C0C0C0A
P 1750 3800
F 0 "#PWR0119" H 1750 3550 50  0001 C CNN
F 1 "GND" H 1755 3627 50  0000 C CNN
F 2 "" H 1750 3800 50  0001 C CNN
F 3 "" H 1750 3800 50  0001 C CNN
	1    1750 3800
	1    0    0    -1  
$EndComp
Wire Wire Line
	1750 3800 1750 3700
Wire Wire Line
	1750 3700 1800 3700
Wire Wire Line
	2100 3700 2100 3600
Wire Wire Line
	2000 3600 2000 3700
Connection ~ 2000 3700
Wire Wire Line
	2000 3700 2100 3700
Wire Wire Line
	1900 3600 1900 3700
Connection ~ 1900 3700
Wire Wire Line
	1900 3700 2000 3700
Wire Wire Line
	1800 3600 1800 3700
Connection ~ 1800 3700
Wire Wire Line
	1800 3700 1900 3700
Wire Wire Line
	1750 3700 1700 3700
Wire Wire Line
	1400 3700 1400 3600
Connection ~ 1750 3700
Wire Wire Line
	1500 3600 1500 3700
Connection ~ 1500 3700
Wire Wire Line
	1500 3700 1400 3700
Wire Wire Line
	1600 3600 1600 3700
Connection ~ 1600 3700
Wire Wire Line
	1600 3700 1500 3700
Wire Wire Line
	1700 3600 1700 3700
Connection ~ 1700 3700
Wire Wire Line
	1700 3700 1600 3700
Wire Wire Line
	3200 5350 4200 5350
Wire Wire Line
	5050 1650 5200 1650
Connection ~ 4200 5350
Wire Wire Line
	4450 5350 4200 5350
$Comp
L power:+5V #PWR0117
U 1 1 5C096836
P 4450 5350
F 0 "#PWR0117" H 4450 5200 50  0001 C CNN
F 1 "+5V" H 4465 5523 50  0000 C CNN
F 2 "" H 4450 5350 50  0001 C CNN
F 3 "" H 4450 5350 50  0001 C CNN
	1    4450 5350
	1    0    0    -1  
$EndComp
NoConn ~ 1000 1800
$Comp
L power:+3.3V #PWR0120
U 1 1 5C00F8CD
P 1900 800
F 0 "#PWR0120" H 1900 650 50  0001 C CNN
F 1 "+3.3V" H 1915 973 50  0000 C CNN
F 2 "" H 1900 800 50  0001 C CNN
F 3 "" H 1900 800 50  0001 C CNN
	1    1900 800 
	1    0    0    -1  
$EndComp
$Comp
L power:+3.3V #PWR0121
U 1 1 5C00F925
P 2150 800
F 0 "#PWR0121" H 2150 650 50  0001 C CNN
F 1 "+3.3V" H 2165 973 50  0000 C CNN
F 2 "" H 2150 800 50  0001 C CNN
F 3 "" H 2150 800 50  0001 C CNN
	1    2150 800 
	1    0    0    -1  
$EndComp
Wire Wire Line
	1900 800  1900 1000
$Comp
L Connector:Raspberry_Pi_2_3 J1
U 1 1 5C011FBA
P 1800 2300
F 0 "J1" H 1800 3778 50  0000 C CNN
F 1 "Raspberry_Pi_Zero_W" H 2450 3600 50  0000 C CNN
F 2 "Connector_IDC:IDC-Header_2x20_P2.54mm_Vertical" H 1800 2300 50  0001 C CNN
F 3 "https://www.raspberrypi.org/documentation/hardware/raspberrypi/schematics/rpi_SCH_3bplus_1p0_reduced.pdf" H 1800 2300 50  0001 C CNN
	1    1800 2300
	1    0    0    -1  
$EndComp
Wire Wire Line
	2000 1000 2000 900 
Wire Wire Line
	2000 900  2150 900 
Wire Wire Line
	2150 900  2150 800 
Wire Wire Line
	1600 1000 1600 900 
Wire Wire Line
	1600 900  1500 900 
Wire Wire Line
	1500 900  1500 800 
Text GLabel 6700 1300 0    50   Input ~ 0
IR_BREAK
$Comp
L power:+5V #PWR0122
U 1 1 5C0465DA
P 7000 750
F 0 "#PWR0122" H 7000 600 50  0001 C CNN
F 1 "+5V" H 7015 923 50  0000 C CNN
F 2 "" H 7000 750 50  0001 C CNN
F 3 "" H 7000 750 50  0001 C CNN
	1    7000 750 
	1    0    0    -1  
$EndComp
$Comp
L Device:R_Small R3
U 1 1 5C046685
P 7000 1000
F 0 "R3" H 7059 1046 50  0000 L CNN
F 1 "10K" H 7059 955 50  0000 L CNN
F 2 "" H 7000 1000 50  0001 C CNN
F 3 "~" H 7000 1000 50  0001 C CNN
	1    7000 1000
	1    0    0    -1  
$EndComp
Wire Wire Line
	6700 1300 7000 1300
Wire Wire Line
	7000 1100 7000 1300
Connection ~ 7000 1300
Wire Wire Line
	7000 1300 7300 1300
Wire Wire Line
	7000 900  7000 750 
$Comp
L power:GND #PWR0123
U 1 1 5C05929E
P 6700 1650
F 0 "#PWR0123" H 6700 1400 50  0001 C CNN
F 1 "GND" H 6705 1477 50  0000 C CNN
F 2 "" H 6700 1650 50  0001 C CNN
F 3 "" H 6700 1650 50  0001 C CNN
	1    6700 1650
	1    0    0    -1  
$EndComp
Wire Wire Line
	7300 1400 6700 1400
Wire Wire Line
	6700 1400 6700 1650
$Comp
L power:+5V #PWR0124
U 1 1 5C05DA75
P 7050 1500
F 0 "#PWR0124" H 7050 1350 50  0001 C CNN
F 1 "+5V" V 7065 1628 50  0000 L CNN
F 2 "" H 7050 1500 50  0001 C CNN
F 3 "" H 7050 1500 50  0001 C CNN
	1    7050 1500
	0    -1   1    0   
$EndComp
Wire Wire Line
	7050 1500 7300 1500
$Comp
L Connector:Conn_01x03_Male J5
U 1 1 5C066F29
P 7500 1400
F 0 "J5" H 7550 1600 50  0000 R CNN
F 1 "IR_BREAK_HEADER" H 8100 1700 50  0000 R CNN
F 2 "" H 7500 1400 50  0001 C CNN
F 3 "~" H 7500 1400 50  0001 C CNN
	1    7500 1400
	-1   0    0    1   
$EndComp
$Comp
L Connector:Conn_01x02_Male J6
U 1 1 5C06D418
P 7750 1400
F 0 "J6" H 7856 1578 50  0000 C CNN
F 1 "IR_LED" H 7856 1487 50  0000 C CNN
F 2 "" H 7750 1400 50  0001 C CNN
F 3 "~" H 7750 1400 50  0001 C CNN
	1    7750 1400
	1    0    0    -1  
$EndComp
$Comp
L power:+5V #PWR?
U 1 1 5C06DA05
P 8150 1350
F 0 "#PWR?" H 8150 1200 50  0001 C CNN
F 1 "+5V" H 8165 1523 50  0000 C CNN
F 2 "" H 8150 1350 50  0001 C CNN
F 3 "" H 8150 1350 50  0001 C CNN
	1    8150 1350
	1    0    0    -1  
$EndComp
$Comp
L power:GND #PWR?
U 1 1 5C06DA6D
P 8150 1550
F 0 "#PWR?" H 8150 1300 50  0001 C CNN
F 1 "GND" H 8155 1377 50  0000 C CNN
F 2 "" H 8150 1550 50  0001 C CNN
F 3 "" H 8150 1550 50  0001 C CNN
	1    8150 1550
	1    0    0    -1  
$EndComp
Wire Wire Line
	7950 1500 8150 1500
Wire Wire Line
	8150 1500 8150 1550
Wire Wire Line
	8150 1350 8150 1400
Wire Wire Line
	8150 1400 7950 1400
Text Notes 7100 1950 0    50   ~ 0
Pull Cord Module
Text GLabel 2750 2200 2    50   Output ~ 0
GPS_PPS
Wire Wire Line
	1450 5650 1450 6050
Wire Wire Line
	2600 2200 2750 2200
Text GLabel 1000 5950 2    50   Input ~ 0
GPS_PPS
Wire Wire Line
	1000 5950 950  5950
Wire Wire Line
	950  5650 1450 5650
Wire Wire Line
	5700 2550 5700 3150
Text GLabel 5200 2950 2    50   Output ~ 0
LED_D
Connection ~ 5700 3150
Wire Wire Line
	5000 2950 5200 2950
Text GLabel 5200 2750 2    50   Output ~ 0
LED_E
Wire Wire Line
	5000 2750 5200 2750
Text GLabel 850  2200 0    50   Output ~ 0
LED_E
Text GLabel 850  2100 0    50   Output ~ 0
LED_D
Wire Wire Line
	1000 2100 850  2100
Wire Wire Line
	1000 2200 850  2200
Wire Wire Line
	2600 3000 2750 3000
Wire Wire Line
	2600 3100 2750 3100
NoConn ~ 2600 1500
NoConn ~ 2600 1400
$EndSCHEMATC
